project/src/Serial_tb.vcd
$date
	Sat Mar 17 00:40:19 2018
$end
$version
	Icarus Verilog
$end
$timescale
	1s
$end
$scope module SerialTx_tb $end
$scope module s $end
$var wire 1 ! clk $end
$var wire 8 " data [7:0] $end
$var wire 1 # res $end
$var wire 1 $ send $end
$var wire 1 % ready $end
$var reg 16 & cycleCount [15:0] $end
$var reg 3 ' sendPtr [2:0] $end
$var reg 4 ( state [3:0] $end
$var reg 1 ) tx $end
$upscope $end
$upscope $end
$enddefinitions $end
#0
$dumpvars
x)
bx (
bx '
bx &
x%
1$
0#
bx "
1!
$end
#5
1)
1%
b0 (
1#
#10
0!
b1100111 "
0#
#20
0)
b0 &
0%
b1 (
1!
#30
0!
#40
1)
b0 '
b10 (
1!
#50
0!
#60
b1 '
1!
#70
0!
#80
b10 '
1!
#90
0!
#100
0)
b11 '
1!
#110
0!
#120
b100 '
1!
#130
0!
#140
1)
b101 '
1!
#150
0!
#160
b110 '
1!
#170
0!
#180
0)
b111 '
1!
#190
0!
#200
1)
b11 (
1!
#210
0!
#220
1%
b0 (
1!
#230
0!
#240
0)
0%
b1 (
1!
#250
0!
#260
1)
b0 '
b10 (
1!
#270
0!
#280
b1 '
1!
#290
0!
#300
b10 '
1!
#310
0!
#320
0)
b11 '
1!
#330
0!
#340
b100 '
1!
#350
0!
#360
1)
b101 '
1!
#370
0!
#380
b110 '
1!
#390
0!
#400
0)
b111 '
1!
#410
0!
#420
1)
b11 (
1!
#430
0!
#440
1%
b0 (
1!
#450
0!
#460
0)
0%
b1 (
1!
#470
0!
#480
1)
b0 '
b10 (
1!
#490
0!
#500
b1 '
1!
#510
0!
#520
b10 '
1!
#530
0!
#540
0)
b11 '
1!
#550
0!
#560
b100 '
1!
#570
0!
#580
1)
b101 '
1!
#590
0!
#600
b110 '
1!
#610
0!
#620
0)
b111 '
1!
#630
0!
#640
1)
b11 (
1!
#650
0!
#660
1%
b0 (
1!
#670
0!
#680
0)
0%
b1 (
1!
#690
0!
#700
1)
b0 '
b10 (
1!
#710
0!
#720
b1 '
1!
#730
0!
#740
b10 '
1!
#750
0!
#760
0)
b11 '
1!
#770
0!
#780
b100 '
1!
#790
0!
#800
1)
b101 '
1!
#810
0!
#820
b110 '
1!
#830
0!
#840
0)
b111 '
1!
#850
0!
#860
1)
b11 (
1!
#870
0!
#880
1%
b0 (
1!
#890
0!
#900
0)
0%
b1 (
1!
#910
0!
#920
1)
b0 '
b10 (
1!
#930
0!
#940
b1 '
1!
#950
0!
#960
b10 '
1!
#970
0!
#980
0)
b11 '
1!
#990
0!
#1000
b100 '
1!
#1010
0!
#1020
1)
b101 '
1!
#1030
0!
#1040
b110 '
1!
#1050
0!
#1060
0)
b111 '
1!
#1070
0!
#1080
1)
b11 (
1!
#1090
0!
#1100
1%
b0 (
1!
#1110
0!
#1120
0)
0%
b1 (
1!
#1130
0!
#1140
1)
b0 '
b10 (
1!
#1150
0!
#1160
b1 '
1!
#1170
0!
#1180
b10 '
1!
#1190
0!
#1200
0)
b11 '
1!
#1210
0!
#1220
b100 '
1!
#1230
0!
#1240
1)
b101 '
1!
#1250
0!
#1260
b110 '
1!
#1270
0!
#1280
0)
b111 '
1!
#1290
0!
#1300
1)
b11 (
1!
#1310
0!
#1320
1%
b0 (
1!
#1330
0!
#1340
0)
0%
b1 (
1!
#1350
0!
#1360
1)
b0 '
b10 (
1!
#1370
0!
#1380
b1 '
1!
#1390
0!
#1400
b10 '
1!
#1410
0!
#1420
0)
b11 '
1!
#1430
0!
#1440
b100 '
1!
#1450
0!
#1460
1)
b101 '
1!
#1470
0!
#1480
b110 '
1!
#1490
0!
#1500
0)
b111 '
1!
#1510
0!
#1520
1)
b11 (
1!
#1530
0!
#1540
1%
b0 (
1!
#1550
0!
#1560
0)
0%
b1 (
1!
#1570
0!
#1580
1)
b0 '
b10 (
1!
#1590
0!
#1600
b1 '
1!
#1610
0!
#1620
b10 '
1!
#1630
0!
#1640
0)
b11 '
1!
#1650
0!
#1660
b100 '
1!
#1670
0!
#1680
1)
b101 '
1!
#1690
0!
#1700
b110 '
1!
#1710
0!
#1720
0)
b111 '
1!
#1730
0!
#1740
1)
b11 (
1!
#1750
0!
#1760
1%
b0 (
1!
#1770
0!
#1780
0)
0%
b1 (
1!
#1790
0!
#1800
1)
b0 '
b10 (
1!
#1810
0!
#1820
b1 '
1!
#1830
0!
#1840
b10 '
1!
#1850
0!
#1860
0)
b11 '
1!
#1870
0!
#1880
b100 '
1!
#1890
0!
#1900
1)
b101 '
1!
#1910
0!
#1920
b110 '
1!
#1930
0!
#1940
0)
b111 '
1!
#1950
0!
#1960
1)
b11 (
1!
#1970
0!
#1980
1%
b0 (
1!
#1990
0!
#2000
0)
0%
b1 (
1!
#2010
0!
#2020
1)
b0 '
b10 (
1!
#2030
0!
#2040
b1 '
1!
#2050
0!
#2060
b10 '
1!
#2070
0!
#2080
0)
b11 '
1!
#2090
0!
#2100
b100 '
1!
#2110
0!
#2120
1)
b101 '
1!
#2130
0!
#2140
b110 '
1!
#2150
0!
#2160
0)
b111 '
1!
#2170
0!
#2180
1)
b11 (
1!
#2190
0!
#2200
1%
b0 (
1!
#2210
0!
#2220
0)
0%
b1 (
1!
#2230
0!
#2240
1)
b0 '
b10 (
1!
#2250
0!
#2260
b1 '
1!
#2270
0!
#2280
b10 '
1!
#2290
0!
#2300
0)
b11 '
1!
#2310
0!
#2320
b100 '
1!
#2330
0!
#2340
1)
b101 '
1!
#2350
0!
#2360
b110 '
1!
#2370
0!
#2380
0)
b111 '
1!
#2390
0!
#2400
1)
b11 (
1!
#2410
0!
#2420
1%
b0 (
1!
#2430
0!
#2440
0)
0%
b1 (
1!
#2450
0!
#2460
1)
b0 '
b10 (
1!
#2470
0!
#2480
b1 '
1!
#2490
0!
#2500
b10 '
1!
#2510
0!
#2520
0)
b11 '
1!
#2530
0!
#2540
b100 '
1!
#2550
0!
#2560
1)
b101 '
1!
#2570
0!
#2580
b110 '
1!
#2590
0!
#2600
0)
b111 '
1!
#2610
0!
#2620
1)
b11 (
1!
#2630
0!
#2640
1%
b0 (
1!
#2650
0!
#2660
0)
0%
b1 (
1!
#2670
0!
#2680
1)
b0 '
b10 (
1!
#2690
0!
#2700
b1 '
1!
#2710
0!
#2720
b10 '
1!
#2730
0!
#2740
0)
b11 '
1!
#2750
0!
#2760
b100 '
1!
#2770
0!
#2780
1)
b101 '
1!
#2790
0!
#2800
b110 '
1!
#2810
0!
#2820
0)
b111 '
1!
#2830
0!
#2840
1)
b11 (
1!
#2850
0!
#2860
1%
b0 (
1!
#2870
0!
#2880
0)
0%
b1 (
1!
#2890
0!
#2900
1)
b0 '
b10 (
1!
#2910
0!
#2920
b1 '
1!
#2930
0!
#2940
b10 '
1!
#2950
0!
#2960
0)
b11 '
1!
#2970
0!
#2980
b100 '
1!
#2990
0!
#3000
1)
b101 '
1!
#3010
0!
#3020
b110 '
1!
#3030
0!
#3040
0)
b111 '
1!
#3050
0!
#3060
1)
b11 (
1!
#3070
0!
#3080
1%
b0 (
1!
#3090
0!
#3100
0)
0%
b1 (
1!
#3110
0!
#3120
1)
b0 '
b10 (
1!
#3130
0!
#3140
b1 '
1!
#3150
0!
#3160
b10 '
1!
#3170
0!
#3180
0)
b11 '
1!
#3190
0!
#3200
b100 '
1!
#3210
0!
#3220
1)
b101 '
1!
#3230
0!
#3240
b110 '
1!
#3250
0!
#3260
0)
b111 '
1!
#3270
0!
#3280
1)
b11 (
1!
#3290
0!
#3300
1%
b0 (
1!
#3310
0!
#3320
0)
0%
b1 (
1!
#3330
0!
#3340
1)
b0 '
b10 (
1!
#3350
0!
#3360
b1 '
1!
#3370
0!
#3380
b10 '
1!
#3390
0!
#3400
0)
b11 '
1!
#3410
0!
#3420
b100 '
1!
#3430
0!
#3440
1)
b101 '
1!
#3450
0!
#3460
b110 '
1!
#3470
0!
#3480
0)
b111 '
1!
#3490
0!
#3500
1)
b11 (
1!
#3510
0!
#3520
1%
b0 (
1!
#3530
0!
#3540
0)
0%
b1 (
1!
#3550
0!
#3560
1)
b0 '
b10 (
1!
#3570
0!
#3580
b1 '
1!
#3590
0!
#3600
b10 '
1!
#3610
0!
#3620
0)
b11 '
1!
#3630
0!
#3640
b100 '
1!
#3650
0!
#3660
1)
b101 '
1!
#3670
0!
#3680
b110 '
1!
#3690
0!
#3700
0)
b111 '
1!
#3710
0!
#3720
1)
b11 (
1!
#3730
0!
#3740
1%
b0 (
1!
#3750
0!
#3760
0)
0%
b1 (
1!
#3770
0!
#3780
1)
b0 '
b10 (
1!
#3790
0!
#3800
b1 '
1!
#3810
0!
#3820
b10 '
1!
#3830
0!
#3840
0)
b11 '
1!
#3850
0!
#3860
b100 '
1!
#3870
0!
#3880
1)
b101 '
1!
#3890
0!
#3900
b110 '
1!
#3910
0!
#3920
0)
b111 '
1!
#3930
0!
#3940
1)
b11 (
1!
#3950
0!
#3960
1%
b0 (
1!
#3970
0!
#3980
0)
0%
b1 (
1!
#3990
0!
#4000
1)
b0 '
b10 (
1!
#4010
0!
#4020
b1 '
1!
